# couleur de fond blanche
fond 1.0 1.0 1.O
# plan horizontal bleu 
materiau 0.2 0.2 0.98  0.5 0.3 10
plan 0 1 0 0
# plan vertical noir 
materiau 0.0 0.0 0.0  0.1 0.7 100
plan 0 0 1 -5
# sphère rouge
materiau 0.9 0.2 0.2  0.5 0.1 10
sphere 0 0 -3 0.5
# une source blanche
source 0 10 0 2 2 2

